10049       he
10049       th
7173       of
6815       to
4639       an
4639       nd
4162       in
3632       at
3632       ha
3632       th
2711       ad
2711       ha
2686       ch
2686       hi
2686       ic
2686       wh
2648       he
2394       as
2394       wa
2284       er
2284       he
2199       it
1883       as
1831       he
1831       sh
1775       fo
1775       or
1761       it
1761       th
1761       wi
1555       ld
1555       ou
