437
1754
1
17477
1
0
2114
319
318
0
0
0
0
0
0
0
0
0
11498
1612
17476
11
16
48
11
12
9
10
5
10
8
11
413
1425
0
0
0
344
2
976
766
583
273
276
559
480
490
2566
65
15
305
952
236
774
501
20
183
1261
691
51
485
420
8
204
4
17477
107
0
15944
8206
11874
14377
16136
11755
10412
15653
15704
826
4620
13895
12264
15823
15874
9064
731
15463
15549
16000
12821
6647
12227
1137
10160
275
0
0
0
0
