7173 of
6815 to
4162 in
2648 he
2199 it
1883 as
1493 my
1421 at
1167 by
1100 on
1083 so
1076 be
 909 me
 820 or
 808 an
 706 is
 629 no
 550 if
 532 we
 310 us
 282 up
 258 de
 243 go
 238 do
  96 oh
  90 am
  56 tm
  47 la
  33 dr
  32 es
  27 ah
  21 th
